{"page":1,"total_results":335842,"total_pages":16793,"results":[{"vote_count":4194,"id":346364,"video":false,"vote_average":7.2,"title":"It","popularity":981.284165,"poster_path":"\/9E2y5Q7WlCVNEhP5GiVTjhEhx1o.jpg","original_language":"en","original_title":"It","genre_ids":[18,14,27,53],"backdrop_path":"\/tcheoA2nPATCm2vvXw2hVQoaEFD.jpg","adult":false,"overview":"In a small town in Maine, seven children known as The Losers Club come face to face with life problems, bullies and a monster that takes the shape of a clown called Pennywise.","release_date":"2017-09-05"},{"vote_count":2223,"id":284053,"video":false,"vote_average":7.5,"title":"Thor: Ragnarok","popularity":846.184174,"poster_path":"\/oSLd5GYGsiGgzDPKTwQh7wamO8t.jpg","original_language":"en","original_title":"Thor: Ragnarok","genre_ids":[28,12,35,14,878],"backdrop_path":"\/5wNUJs23rT5rTBacNyf5h83AynM.jpg","adult":false,"overview":"Thor is imprisoned on the other side of the universe and finds himself in a race against time to get back to Asgard to stop Ragnarok, the prophecy of destruction to his homeworld and the end of Asgardian civilization, at the hands of an all-powerful new threat, the ruthless Hela.","release_date":"2017-10-25"},{"vote_count":1228,"id":141052,"video":false,"vote_average":6.8,"title":"Justice League","popularity":729.899825,"poster_path":"\/9rtrRGeRnL0JKtu9IMBWsmlmmZz.jpg","original_language":"en","original_title":"Justice League","genre_ids":[28,12,14,878],"backdrop_path":"\/o5T8rZxoWSBMYwjsUFUqTt6uMQB.jpg","adult":false,"overview":"Fueled by his restored faith in humanity and inspired by Superman's selfless act, Bruce Wayne and Diana Prince assemble a team of metahumans consisting of Barry Allen, Arthur Curry, and Victor Stone to face the catastrophic threat of Steppenwolf and the Parademons who are on the hunt for three Mother Boxes on Earth.","release_date":"2017-11-15"},{"vote_count":137,"id":347882,"video":false,"vote_average":5.5,"title":"Sleight","popularity":632.694773,"poster_path":"\/wridRvGxDqGldhzAIh3IcZhHT5F.jpg","original_language":"en","original_title":"Sleight","genre_ids":[18,53,28,878],"backdrop_path":"\/2SEgJ0mHJ7TSdVDbkGU061tR33K.jpg","adult":false,"overview":"A young street magician is left to take care of his little sister after his mother's passing and turns to drug dealing in the Los Angeles party scene to keep a roof over their heads. When he gets into trouble with his supplier, his sister is kidnapped and he is forced to rely on both his sleight of hand and brilliant mind to save her.","release_date":"2017-04-28"},{"vote_count":541,"id":440021,"video":false,"vote_average":6.4,"title":"Happy Death Day","popularity":609.039725,"poster_path":"\/cTaEIUYTt52ooq9quVbAQ7NpGwo.jpg","original_language":"en","original_title":"Happy Death Day","genre_ids":[27],"backdrop_path":"\/eGx5OfOdvM0gkHdmkLe3hcJuEIT.jpg","adult":false,"overview":"A college student relives the day of her murder over and over again as she tries to discover her killer's identity.","release_date":"2017-10-12"},{"vote_count":354,"id":298250,"video":false,"vote_average":5.8,"title":"Jigsaw","popularity":583.128587,"poster_path":"\/zUbUtxiTdEgWnkXY945gtYYqBZ1.jpg","original_language":"en","original_title":"Jigsaw","genre_ids":[27,53],"backdrop_path":"\/ytKpFaLMpFWnuSXStz1GHrtTt6R.jpg","adult":false,"overview":"Dead bodies begin to turn up all over the city, each meeting their demise in a variety of grisly ways. All investigations begin to point the finger at deceased killer John Kramer.","release_date":"2017-10-20"},{"vote_count":221,"id":419680,"video":false,"vote_average":5.7,"title":"Daddy's Home 2","popularity":496.39169,"poster_path":"\/rF2IoKL0IFmumEXQFUuB8LajTYP.jpg","original_language":"en","original_title":"Daddy's Home 2","genre_ids":[18,35],"backdrop_path":"\/lMDyuHzBhx3zNAv48vYzmgcJCCD.jpg","adult":false,"overview":"Brad and Dusty must deal with their intrusive fathers during the holidays.","release_date":"2017-11-09"},{"vote_count":2517,"id":281338,"video":false,"vote_average":6.7,"title":"War for the Planet of the Apes","popularity":464.710912,"poster_path":"\/3vYhLLxrTtZLysXtIWktmd57Snv.jpg","original_language":"en","original_title":"War for the Planet of the Apes","genre_ids":[18,878,10752],"backdrop_path":"\/ulMscezy9YX0bhknvJbZoUgQxO5.jpg","adult":false,"overview":"Caesar and his apes are forced into a deadly conflict with an army of humans led by a ruthless Colonel. After the apes suffer unimaginable losses, Caesar wrestles with his darker instincts and begins his own mythic quest to avenge his kind. As the journey finally brings them face to face, Caesar and the Colonel are pitted against each other in an epic battle that will determine the fate of both their species and the future of the planet.","release_date":"2017-07-11"},{"vote_count":412,"id":392044,"video":false,"vote_average":6.7,"title":"Murder on the Orient Express","popularity":461.437344,"poster_path":"\/iBlfxlw8qwtUS0R8YjIU7JtM6LM.jpg","original_language":"en","original_title":"Murder on the Orient Express","genre_ids":[80,18,9648],"backdrop_path":"\/tvKcA4OFUiZkNeTJmmTkNqKHMMg.jpg","adult":false,"overview":"Genius Belgian detective Hercule Poirot investigates the murder of an American tycoon aboard the Orient Express train.","release_date":"2017-11-03"},{"vote_count":5118,"id":211672,"video":false,"vote_average":6.4,"title":"Minions","popularity":440.264071,"poster_path":"\/q0R4crx2SehcEEQEkYObktdeFy.jpg","original_language":"en","original_title":"Minions","genre_ids":[10751,16,12,35],"backdrop_path":"\/qLmdjn2fv0FV2Mh4NBzMArdA0Uu.jpg","adult":false,"overview":"Minions Stuart, Kevin and Bob are recruited by Scarlet Overkill, a super-villain who, alongside her inventor husband Herb, hatches a plot to take over the world.","release_date":"2015-06-17"},{"vote_count":4911,"id":315635,"video":false,"vote_average":7.3,"title":"Spider-Man: Homecoming","popularity":377.94217,"poster_path":"\/ApYhuwBWzl29Oxe9JJsgL7qILbD.jpg","original_language":"en","original_title":"Spider-Man: Homecoming","genre_ids":[28,12,35,878],"backdrop_path":"\/vc8bCGjdVp0UbMNLzHnHSLRbBWQ.jpg","adult":false,"overview":"Following the events of Captain America: Civil War, Peter Parker, with the help of his mentor Tony Stark, tries to balance his life as an ordinary high school student in Queens, New York City, with fighting crime as his superhero alter ego Spider-Man as a new threat, the Vulture, emerges.","release_date":"2017-07-05"},{"vote_count":6111,"id":321612,"video":false,"vote_average":6.8,"title":"Beauty and the Beast","popularity":335.722855,"poster_path":"\/tWqifoYuwLETmmasnGHO7xBjEtt.jpg","original_language":"en","original_title":"Beauty and the Beast","genre_ids":[10751,14,10749],"backdrop_path":"\/6aUWe0GSl69wMTSWWexsorMIvwU.jpg","adult":false,"overview":"A live-action adaptation of Disney's version of the classic 'Beauty and the Beast' tale of a cursed prince and a beautiful young woman who helps him break the spell.","release_date":"2017-03-16"},{"vote_count":88,"id":399057,"video":false,"vote_average":5.9,"title":"The Killing of a Sacred Deer","popularity":335.705806,"poster_path":"\/e4DGlsc9g0h5AyoyvvAuIRnofN7.jpg","original_language":"en","original_title":"The Killing of a Sacred Deer","genre_ids":[18,27,53],"backdrop_path":"\/854uDv6rzbwF82jOtFe931SMrRs.jpg","adult":false,"overview":"A teenager's attempts to bring a brilliant surgeon into his dysfunctional family take an unexpected turn.","release_date":"2017-10-20"},{"vote_count":5956,"id":245891,"video":false,"vote_average":7,"title":"John Wick","popularity":318.886532,"poster_path":"\/5vHssUeVe25bMrof1HyaPyWgaP.jpg","original_language":"en","original_title":"John Wick","genre_ids":[28,53],"backdrop_path":"\/umC04Cozevu8nn3JTDJ1pc7PVTn.jpg","adult":false,"overview":"Ex-hitman John Wick comes out of retirement to track down the gangsters that took everything from him.","release_date":"2014-10-22"},{"vote_count":6675,"id":177572,"video":false,"vote_average":7.8,"title":"Big Hero 6","popularity":308.191554,"poster_path":"\/9gLu47Zw5ertuFTZaxXOvNfy78T.jpg","original_language":"en","original_title":"Big Hero 6","genre_ids":[12,10751,16,28,35],"backdrop_path":"\/2BXd0t9JdVqCp9sKf6kzMkr7QjB.jpg","adult":false,"overview":"The special bond that develops between plus-sized inflatable robot Baymax, and prodigy Hiro Hamada, who team up with a group of friends to form a band of high-tech heroes.","release_date":"2014-10-24"},{"vote_count":1362,"id":339964,"video":false,"vote_average":6.7,"title":"Valerian and the City of a Thousand Planets","popularity":285.532062,"poster_path":"\/jfIpMh79fGRqYJ6PwZLCntzgxlF.jpg","original_language":"en","original_title":"Valerian and the City of a Thousand Planets","genre_ids":[12,878,28],"backdrop_path":"\/o6OhxtsgMurL4h68Uqei0aSPMNr.jpg","adult":false,"overview":"In the 28th century, Valerian and Laureline are special operatives charged with keeping order throughout the human territories. On assignment from the Minister of Defense, the two undertake a mission to Alpha, an ever-expanding metropolis where species from across the universe have converged over centuries to share knowledge, intelligence, and cultures. At the center of Alpha is a mysterious dark force which threatens the peaceful existence of the City of a Thousand Planets, and Valerian and Laureline must race to identify the menace and safeguard not just Alpha, but the future of the universe.","release_date":"2017-07-20"},{"vote_count":1416,"id":341013,"video":false,"vote_average":6,"title":"Atomic Blonde","popularity":280.21892,"poster_path":"\/kV9R5h0Yct1kR8Hf8sJ1nX0Vz4x.jpg","original_language":"en","original_title":"Atomic Blonde","genre_ids":[53,9648,28],"backdrop_path":"\/lj3wkYkJGkfmDfXkKrVarSJpFD4.jpg","adult":false,"overview":"An undercover MI6 agent is sent to Berlin during the Cold War to investigate the murder of a fellow agent and recover a missing list of double agents.","release_date":"2017-07-26"},{"vote_count":2692,"id":8844,"video":false,"vote_average":6.9,"title":"Jumanji","popularity":276.405676,"poster_path":"\/8wBKXZNod4frLZjAKSDuAcQ2dEU.jpg","original_language":"en","original_title":"Jumanji","genre_ids":[12,14,10751],"backdrop_path":"\/52lVqTDhIeNTjT7EiJuovXgw6iE.jpg","adult":false,"overview":"When siblings Judy and Peter discover an enchanted board game that opens the door to a magical world, they unwittingly invite Alan -- an adult who's been trapped inside the game for 26 years -- into their living room. Alan's only hope for freedom is to finish the game, which proves risky as all three find themselves running from giant rhinoceroses, evil monkeys and other terrifying creatures.","release_date":"1995-12-15"},{"vote_count":6200,"id":297762,"video":false,"vote_average":7.2,"title":"Wonder Woman","popularity":248.782578,"poster_path":"\/imekS7f1OuHyUP2LAiTEM0zBzUz.jpg","original_language":"en","original_title":"Wonder Woman","genre_ids":[28,12,14],"backdrop_path":"\/6iUNJZymJBMXXriQyFZfLAKnjO6.jpg","adult":false,"overview":"An Amazon princess comes to the world of Man to become the greatest of the female superheroes.","release_date":"2017-05-30"},{"vote_count":65,"id":395458,"video":false,"vote_average":4.4,"title":"Suburbicon","popularity":240.408044,"poster_path":"\/a3IHgSwO5jWPLcGjKqbQ7pxVGkq.jpg","original_language":"en","original_title":"Suburbicon","genre_ids":[35,80,18,28,9648],"backdrop_path":"\/egHeYqgrutiRAzGGWTKp3zqUw0j.jpg","adult":false,"overview":"A crime mystery set in the quiet family town of Suburbicon during the 1950s, where the best and worst of humanity is hilariously reflected through the deeds of seemingly ordinary people. When a home invasion turns deadly, a picture-perfect family turns to blackmail, revenge, and murder.","release_date":"2017-10-26"}]}